{
    "static": 
    {
        "benchmark": {}
        ,"graph_type": {}
        ,"CH": {}
        ,"benchmark_type": {}
    },
    "map": {
        "n_maps": {"incremental":true}
        ,"n_nodes":{}
        ,"n_edges":{}
        ,"preprocessing_time": {}
        ,"E/N":{"ratio": true}
        ,"n_edges_CH":{"CH":true}
        ,"n_edges_forward": {"CH":true}
        ,"perc_edges_forward": {"CH":true, "ratio":true}
        ,"E/N_CH":{"CH":true, "ratio": true}
        ,"n_shortcuts":{"CH": true}
        ,"n_redundant_shortcuts":{"CH": true}
        ,"n_diagonal_first_shortcuts":{"CH": true}
        ,"n_cardinal_first_shortcuts":{"CH": true}
        ,"n_avoidable_nodes_forward":{}
        ,"n_avoidable_nodes_backward":{}

    }
    ,"problem": {
        "n_problems_with_search": {"incremental": true}
        ,"n_problems": {"incremental": true}
        ,"solution_depth": {}
        ,"solution_cost": {}
        ,"added_nodes": {}
        ,"added_edges": {"connect": true}
        ,"added_edges_start": {"connect":true}
        ,"added_edges_goal": {"connect":true}
        ,"search_time": {}
        ,"connect_time": {}
        ,"refine_time": {}
        ,"CSR_time": {}
        ,"problem_time": {}
        ,"n_avoided": {}
        ,"n_skipped": {}
        ,"n_expansions": {}
        ,"n_relaxed_edges_per_exp": {}
        ,"n_percolations": {}
        ,"n_stalled": { "CH": true}
        ,"n_expansions_forward": { "CH": true}
    }
}